/home/shohag/eclipse-workspace/springio/medical/src/main/java/com/discharge/medical/MedicalApplication.java
/home/shohag/eclipse-workspace/springio/medical/src/main/java/com/discharge/medical/dischargecertificate/DischargeController.java
/home/shohag/eclipse-workspace/springio/medical/src/main/java/com/discharge/medical/dischargecertificate/DischargeService.java
/home/shohag/eclipse-workspace/springio/medical/src/main/java/com/discharge/medical/dischargecertificate/DischargeRepository.java
/home/shohag/eclipse-workspace/springio/medical/src/main/java/com/discharge/medical/dischargecertificate/DischargeEntity.java
